%YAML 1.1
%TAG !u! tag:unity3d.com,2011:
--- !u!1045 &1
EditorBuildSettings:
  m_ObjectHideFlags: 0
  serializedVersion: 2
  m_Scenes:
  - enabled: 1
    path: Assets/_Scenes/Setup.unity
    guid: d06fad3ee12c365459e7d6a1d662dc77
  - enabled: 1
    path: Assets/_Scenes/Menu.unity
    guid: 67f8904d4acdaa64a8a0a3cec3802f31
  - enabled: 1
    path: Assets/_Scenes/MainScene.unity
    guid: cc7867483062f8343bba8d5550c21c74
  m_configObjects: {}
