# This file uses centimeters as units for non-parametric coordinates.

mtllib Pinboard1.mtl
g default
v 0.035604 0.579553 -0.807737
v 0.013600 0.579553 -0.823723
v -0.013600 0.579553 -0.823723
v -0.035604 0.579553 -0.807737
v -0.044009 0.579553 -0.781870
v -0.035604 0.579553 -0.756002
v -0.013600 0.579553 -0.740014
v 0.013600 0.579553 -0.740014
v 0.035604 0.579553 -0.756002
v 0.044009 0.579553 -0.781870
v 0.035604 5.548223 -0.807737
v 0.013600 5.548223 -0.823723
v -0.013600 5.548223 -0.823723
v -0.035604 5.548223 -0.807737
v -0.044009 5.548223 -0.781870
v -0.035604 5.548223 -0.756002
v -0.013600 5.548223 -0.740014
v 0.013600 5.548223 -0.740014
v 0.035604 5.548223 -0.756002
v 0.044009 5.548223 -0.781870
v 0.035604 5.579684 -0.807737
v 0.013600 5.579684 -0.823723
v -0.013600 5.579684 -0.823723
v -0.035604 5.579684 -0.807737
v -0.044009 5.579684 -0.781870
v -0.035604 5.579684 -0.756002
v -0.024658 5.579684 -0.740014
v 0.024658 5.579684 -0.740014
v 0.035604 5.579684 -0.756002
v 0.044009 5.579684 -0.781870
v 0.035604 5.652171 -0.807737
v 0.013600 5.652171 -0.823723
v -0.000000 5.652171 -0.781870
v -0.013600 5.652171 -0.823723
v -0.035604 5.652171 -0.807737
v -0.044009 5.652171 -0.781870
v -0.035604 5.652171 -0.756002
v -0.024658 5.652171 -0.740014
v 0.024658 5.652171 -0.740014
v 0.035604 5.652171 -0.756002
v 0.044009 5.652171 -0.781870
v 0.035604 0.064022 -0.807737
v 0.013600 0.064022 -0.823723
v -0.013600 0.064022 -0.823723
v -0.035604 0.064022 -0.807737
v -0.044009 0.064022 -0.781870
v -0.035604 0.064022 -0.756001
v -0.013600 0.064022 -0.740014
v 0.013600 0.064022 -0.740014
v 0.035604 0.064022 -0.756002
v 0.044009 0.064022 -0.781870
v 0.051339 0.013458 -0.819170
v 0.019610 0.013458 -0.842223
v -0.019610 0.013458 -0.842223
v -0.051339 0.013458 -0.819171
v -0.063459 0.013458 -0.781870
v -0.051339 0.013458 -0.744569
v -0.019610 0.013458 -0.721517
v 0.019610 0.013458 -0.721517
v 0.051339 0.013458 -0.744569
v 0.063459 0.013458 -0.781870
v 0.051339 -0.057541 -0.819170
v 0.019610 -0.057541 -0.842223
v 0.000000 -0.057538 -0.781870
v -0.019610 -0.057541 -0.842223
v -0.051339 -0.057541 -0.819171
v -0.063459 -0.057541 -0.781870
v -0.051339 -0.057541 -0.744569
v -0.019610 -0.057541 -0.721517
v 0.019610 -0.057541 -0.721517
v 0.051339 -0.057541 -0.744569
v 0.063459 -0.057541 -0.781870
v -0.013600 0.579553 1.303161
v 0.013600 0.579553 1.302687
v 0.013600 5.548223 1.302687
v -0.013600 5.548223 1.303161
v -0.024658 5.579684 1.303354
v 0.024658 5.579684 1.302494
v -0.024658 5.652171 1.303354
v 0.024658 5.652171 1.302494
v 0.063742 0.579553 3.378117
v 0.042308 0.579553 3.394861
v 0.015126 0.579553 3.395809
v -0.007423 0.579553 3.380600
v -0.016725 0.579553 3.355042
v -0.009226 0.579553 3.328896
v 0.012207 0.579553 3.312151
v 0.039390 0.579553 3.311203
v 0.061938 0.579553 3.326414
v 0.071240 0.579553 3.351973
v 0.063742 5.548223 3.378117
v 0.042308 5.548223 3.394861
v 0.015126 5.548223 3.395809
v -0.007423 5.548223 3.380600
v -0.016725 5.548223 3.355042
v -0.009226 5.548223 3.328896
v 0.012207 5.548223 3.312151
v 0.039390 5.548223 3.311203
v 0.061938 5.548223 3.326414
v 0.071240 5.548223 3.351973
v 0.063742 5.579684 3.378118
v 0.042308 5.579684 3.394861
v 0.015126 5.579684 3.395809
v -0.007423 5.579684 3.380600
v -0.016725 5.579684 3.355042
v -0.009226 5.579684 3.328896
v 0.001155 5.579684 3.312537
v 0.050442 5.579684 3.310818
v 0.061938 5.579684 3.326414
v 0.071240 5.579684 3.351973
v 0.063742 5.652171 3.378117
v 0.042308 5.652171 3.394861
v 0.027258 5.652171 3.353508
v 0.015126 5.652171 3.395810
v -0.007423 5.652171 3.380600
v -0.016725 5.652171 3.355042
v -0.009226 5.652171 3.328896
v 0.001155 5.652171 3.312537
v 0.050442 5.652171 3.310818
v 0.061938 5.652171 3.326414
v 0.071240 5.652171 3.351973
v 0.063742 0.064022 3.378118
v 0.042308 0.064022 3.394861
v 0.015126 0.064022 3.395809
v -0.007423 0.064022 3.380601
v -0.016725 0.064022 3.355042
v -0.009226 0.064022 3.328896
v 0.012207 0.064022 3.312151
v 0.039390 0.064022 3.311203
v 0.061938 0.064022 3.326414
v 0.071240 0.064022 3.351973
v 0.079866 0.013458 3.388995
v 0.048960 0.013458 3.413140
v 0.009764 0.013458 3.414507
v -0.022750 0.013458 3.392575
v -0.036163 0.013458 3.355720
v -0.025351 0.013458 3.318019
v 0.005556 0.013458 3.293875
v 0.044752 0.013458 3.292508
v 0.077266 0.013458 3.314440
v 0.090678 0.013458 3.351296
v 0.079866 -0.057541 3.388995
v 0.048960 -0.057541 3.413140
v 0.027258 -0.057538 3.353508
v 0.009764 -0.057541 3.414507
v -0.022750 -0.057541 3.392575
v -0.036163 -0.057541 3.355720
v -0.025351 -0.057541 3.318019
v 0.005556 -0.057541 3.293875
v 0.044752 -0.057541 3.292508
v 0.077266 -0.057541 3.314440
v 0.090678 -0.057541 3.351296
vt 0.013947 0.013301
vt 0.016919 0.009195
vt 0.129060 0.009108
vt 0.130409 0.013857
vt 0.020076 0.005262
vt 0.135049 0.000000
vt 0.052256 0.015998
vt 0.140117 0.000112
vt 0.055678 0.012320
vt 0.144557 0.002355
vt 0.059412 0.008969
vt 0.147443 0.006480
vt 0.063348 0.005865
vt 0.981340 0.505975
vt 0.007053 0.026770
vt 0.008959 0.022148
vt 0.138673 0.018616
vt 0.143404 0.020377
vt 0.011273 0.017636
vt 0.133913 0.017258
vt 0.170766 0.012572
vt 0.165345 0.015905
vt 0.162331 0.004849
vt 0.190309 0.014894
vt 0.189750 0.008255
vt 0.186120 0.002974
vt 0.180237 0.000467
vt 0.151507 0.000000
vt 0.151033 0.006658
vt 0.153751 0.012463
vt 0.159059 0.015870
vt 0.131055 0.013458
vt 0.129813 0.009001
vt 0.138505 0.009190
vt 0.134948 0.000775
vt 0.139895 0.000834
vt 0.144089 0.002951
vt 0.146818 0.006919
vt 0.982535 0.504622
vt 0.997374 0.500371
vt 0.138895 0.017888
vt 0.134331 0.016626
vt 0.109438 0.386854
vt 0.506531 0.188355
vt 0.796690 0.325648
vt 0.784286 0.329509
vt 0.795517 0.327035
vt 0.326075 0.226909
vt 0.129288 0.009075
vt 0.130605 0.013736
vt 0.135018 0.000231
vt 0.140049 0.000332
vt 0.144415 0.002537
vt 0.147267 0.006632
vt 0.982293 0.504896
vt 0.138763 0.018401
vt 0.142425 0.018579
vt 0.134041 0.017066
vt 0.784045 0.329784
vt 0.010767 0.011052
vt 0.014088 0.006680
vt 0.017869 0.003184
vt 0.049212 0.013635
vt 0.052923 0.009506
vt 0.057102 0.005912
vt 0.061561 0.003317
vt 0.003632 0.026244
vt 0.005292 0.020857
vt 0.007808 0.015797
vt 0.165468 0.016366
vt 0.171089 0.012922
vt 0.174481 0.007085
vt 0.190190 0.008068
vt 0.186419 0.002603
vt 0.180330 0.000000
vt 0.173616 0.000683
vt 0.150570 0.006776
vt 0.153402 0.012788
vt 0.158928 0.016329
vt 0.795757 0.326757
vt 0.024171 0.004720
vt 0.104534 0.000000
vt 0.101548 0.000153
vt 0.021304 0.003417
vt 0.098834 0.001601
vt 0.026673 0.000000
vt 0.097719 0.009671
vt 0.029717 0.000751
vt 0.100588 0.010652
vt 0.032760 0.001502
vt 0.103586 0.011176
vt 0.035804 0.002254
vt 0.106564 0.012113
vt 0.035638 0.009932
vt 0.032771 0.008629
vt 0.598517 0.154787
vt 0.108863 0.003800
vt 0.029904 0.007326
vt 0.107164 0.001344
vt 0.027037 0.006023
vt 0.204070 0.010410
vt 0.197891 0.007083
vt 0.204883 0.006731
vt 0.201456 0.013119
vt 0.197812 0.014060
vt 0.194205 0.012938
vt 0.191683 0.010056
vt 0.190793 0.006159
vt 0.196864 0.000287
vt 0.200694 0.000767
vt 0.203646 0.003162
vt 0.104431 0.000449
vt 0.103436 0.005563
vt 0.101633 0.000606
vt 0.095343 0.007720
vt 0.097895 0.009314
vt 0.100668 0.010267
vt 0.103628 0.010634
vt 0.588076 0.158746
vt 0.109257 0.006089
vt 0.108489 0.004069
vt 0.106883 0.001706
vt 0.104503 0.000136
vt 0.101574 0.000290
vt 0.098884 0.001733
vt 0.097771 0.009562
vt 0.100612 0.010536
vt 0.103614 0.011016
vt 0.105858 0.011025
vt 0.597596 0.155906
vt 0.108758 0.003893
vt 0.107079 0.001454
vt 0.079697 0.011039
vt 0.074222 0.010843
vt 0.082104 0.009471
vt 0.083140 0.006792
vt 0.082411 0.004013
vt 0.080195 0.002186
vt 0.074574 0.001983
vt 0.072193 0.003590
vt 0.071202 0.006286
vt 0.071976 0.009053
vt 0.204321 0.010548
vt 0.205170 0.006719
vt 0.201599 0.013368
vt 0.197805 0.014347
vt 0.194053 0.013181
vt 0.191436 0.010200
vt 0.193059 0.001504
vt 0.196846 0.000000
vt 0.200815 0.000507
vt 0.203885 0.003003
vt 0.148593 0.010095
vt 0.088106 0.030911
vt 0.587836 0.159021
vt 0.820432 0.047558
vt 0.017254 0.229946
vt 0.586914 0.160127
vt 0.783108 0.330877
vt 0.997614 0.500093
vt 0.150570 0.182330
vt 0.998559 0.498994
vt 0.586393 0.160006
vt 0.653147 0.000000
vt 0.000000 0.182388
vt 0.000000 0.359990
vt 0.109566 0.005949
vt 0.119973 0.026211
vt 1.000000 0.006625
vt 0.603645 0.207560
vt 0.148079 0.010325
vt 0.142483 0.018023
vt 0.007385 0.031382
vt 0.173625 0.001167
vt 0.000824 0.033083
vt 0.004027 0.031434
vt 0.099522 0.033435
vt 0.076821 0.000000
vt 0.193143 0.001785
vt 0.038294 0.005249
vt 0.167822 0.229885
vt 0.997393 0.000000
vt 0.504040 0.181685
vt 0.002374 0.366701
vt 0.803179 0.000000
vt 0.502728 0.000000
vt 0.027998 0.003909
vt 0.025131 0.002606
vt 0.030865 0.005212
vt 0.033732 0.006515
vt 0.036598 0.007818
vt 0.077328 0.002001
vt 0.035250 0.004498
vt 0.032206 0.003747
vt 0.029163 0.002995
vt 0.026119 0.002244
vt 0.022265 0.001303
vt 0.070255 0.010193
vt 0.073494 0.012775
vt 0.069139 0.006205
vt 0.070568 0.002317
vt 0.074002 0.000000
vt 0.190517 0.006249
vt 0.080955 0.000267
vt 0.084151 0.002901
vt 0.085201 0.006908
vt 0.083708 0.010772
vt 0.080237 0.013032
vt 0.151019 0.000011
vt 0.004807 0.013960
vt 0.008095 0.008796
vt 0.001954 0.019601
vt 0.000000 0.026010
vt 0.061265 0.000000
vt 0.055449 0.002839
vt 0.050600 0.006841
vt 0.046204 0.011585
vt 0.016899 0.000000
vt 0.011877 0.003988
vt 0.115068 0.000000
vt 0.019398 0.000000
vt 0.095100 0.008067
vt 0.099007 0.002046
vt 0.094994 0.008218
vt 0.105863 0.010688
vt 0.597356 0.156185
vt 0.100842 0.005288
vt 0.993185 0.505240
vt 0.593060 0.160960
vt 0.791273 0.331859
vt 0.042277 0.036200
vt 0.044839 0.032001
vt 0.039772 0.040433
vt 0.037288 0.044731
vt 0.084502 0.034401
vt 0.150613 0.010480
vt 0.080953 0.037856
vt 0.077453 0.041328
vt 0.073963 0.044848
vt 0.047468 0.027792
vt 0.092185 0.339299
vt 0.670400 0.047554
vt 0.308821 0.179352
vt 0.519981 0.047558
vt 0.077092 0.010981
vt 0.077632 0.012974
vt 0.129027 0.006371
vt 0.123443 0.003822
vt 0.120651 0.002548
vt 0.126235 0.005096
vt 0.117859 0.001274
vt 0.018437 0.002114
vt 0.096547 0.032451
vt 0.038848 0.003005
vt 0.093530 0.031451
vt 0.090526 0.030413
vt 0.087576 0.029373
vt 0.190789 0.014809
vt 0.178964 0.011696
vt 0.174085 0.006807
vt 0.050142 0.023520
vt 0.046580 0.018183
vt 0.043020 0.017863
vt 0.049134 0.019917
vt 0.130671 0.004134
vt 0.130117 0.004108
vt 0.129883 0.004099
vt 0.106013 0.019840
vt 0.114389 0.023662
vt 0.111597 0.022388
vt 0.117181 0.024937
vt 0.110786 0.006157
vt 0.108805 0.021114
vn 0.587761 0.000000 -0.809034
vn 0.587761 0.000000 -0.809034
vn 0.587761 -0.000000 -0.809035
vn 0.587761 -0.000000 -0.809035
vn -0.000001 0.000000 -1.000000
vn -0.000001 0.000000 -1.000000
vn -0.000000 -0.000000 -1.000000
vn -0.000000 -0.000000 -1.000000
vn -0.587762 0.000000 -0.809034
vn -0.587762 0.000000 -0.809034
vn -0.587763 -0.000000 -0.809033
vn -0.587763 -0.000000 -0.809033
vn -0.951051 0.000000 -0.309033
vn -0.951051 0.000000 -0.309034
vn -0.951051 -0.000000 -0.309034
vn -0.951051 -0.000000 -0.309034
vn -0.951058 0.000000 0.309012
vn -0.951058 0.000000 0.309012
vn -0.951058 0.000000 0.309012
vn -0.951058 0.000000 0.309012
vn -0.587795 0.000000 0.809010
vn -0.587795 0.000000 0.809010
vn -0.588043 -0.000265 0.808829
vn -0.588404 -0.000651 0.808567
vn 0.587795 -0.000000 0.809010
vn 0.587795 -0.000000 0.809010
vn 0.588404 -0.000651 0.808567
vn 0.588043 -0.000265 0.808829
vn 0.951058 0.000000 0.309012
vn 0.951058 0.000000 0.309012
vn 0.951058 -0.000000 0.309012
vn 0.951058 -0.000000 0.309012
vn 0.951052 0.000000 -0.309032
vn 0.951052 0.000000 -0.309032
vn 0.951052 -0.000000 -0.309032
vn 0.951052 -0.000000 -0.309032
vn -0.000013 -1.000000 0.000040
vn -0.000035 -1.000000 0.000026
vn 0.000000 -1.000000 -0.000000
vn 0.000013 -1.000000 0.000040
vn 0.000035 -1.000000 0.000026
vn 0.000043 -1.000000 0.000000
vn 0.000035 -1.000000 -0.000026
vn 0.000013 -1.000000 -0.000040
vn -0.000013 -1.000000 -0.000040
vn -0.000035 -1.000000 -0.000026
vn -0.000043 -1.000000 0.000000
vn 0.000000 1.000000 0.000000
vn 0.000000 1.000000 -0.000009
vn 0.000000 1.000000 0.000000
vn 0.000000 1.000000 -0.000009
vn 0.000000 1.000000 0.000009
vn 0.000000 1.000000 0.000009
vn 0.000000 1.000000 -0.000012
vn 0.000000 1.000000 -0.000000
vn 0.000000 1.000000 -0.000000
vn 0.000000 1.000000 -0.000009
vn 0.000000 1.000000 -0.000009
vn 0.000001 -1.000000 0.000000
vn 0.000001 -1.000000 0.000000
vn 0.000001 -1.000000 0.000000
vn 0.000001 -1.000000 0.000000
vn 1.000000 0.000000 -0.000000
vn 0.999997 -0.002212 -0.000000
vn 0.999977 -0.002202 -0.006366
vn 0.999980 0.000000 -0.006366
vn 0.000000 1.000000 0.000000
vn 0.000000 1.000000 0.000000
vn -0.999997 -0.002212 0.000000
vn -1.000000 0.000000 0.000000
vn -0.999980 0.000000 0.006369
vn -0.999977 -0.002221 0.006368
vn 0.587765 -0.000001 -0.809032
vn 0.587765 -0.000001 -0.809032
vn -0.000002 -0.000004 -1.000000
vn -0.000002 -0.000004 -1.000000
vn -0.587766 -0.000003 -0.809031
vn -0.587766 -0.000003 -0.809031
vn -0.951051 -0.000000 -0.309034
vn -0.951051 -0.000000 -0.309034
vn -0.951059 0.000000 0.309010
vn -0.951059 0.000000 0.309010
vn -0.774468 -0.050976 0.630556
vn -0.784254 -0.041717 0.619035
vn 0.784253 -0.041718 0.619037
vn 0.774468 -0.050976 0.630556
vn 0.951059 -0.000000 0.309010
vn 0.951059 -0.000000 0.309010
vn 0.951052 0.000000 -0.309032
vn 0.951052 -0.000000 -0.309032
vn -0.994401 -0.105483 0.006347
vn -0.994389 -0.105785 0.000000
vn 0.587767 0.000001 -0.809030
vn 0.587767 0.000001 -0.809030
vn 0.000000 -0.000004 -1.000000
vn 0.000000 -0.000004 -1.000000
vn -0.587768 -0.000003 -0.809030
vn -0.587768 -0.000003 -0.809030
vn -0.951051 0.000000 -0.309034
vn -0.951051 0.000000 -0.309034
vn -0.951059 0.000000 0.309010
vn -0.951059 0.000000 0.309010
vn -0.825137 0.000000 0.564932
vn -0.825137 0.000000 0.564932
vn 0.825133 0.000000 0.564938
vn 0.825133 0.000000 0.564938
vn 0.951059 0.000000 0.309010
vn 0.951059 0.000000 0.309010
vn 0.951052 0.000000 -0.309032
vn 0.951052 0.000000 -0.309032
vn -0.999980 0.000000 0.006370
vn -1.000000 0.000000 0.000000
vn 0.587148 0.045886 -0.808178
vn 0.587148 0.045887 -0.808178
vn -0.000009 0.045888 -0.998947
vn -0.000009 0.045887 -0.998947
vn -0.587136 0.045886 -0.808187
vn -0.587136 0.045886 -0.808187
vn -0.950051 0.045886 -0.308704
vn -0.950051 0.045885 -0.308704
vn -0.950057 0.045883 0.308684
vn -0.950057 0.045884 0.308684
vn -0.587169 0.045882 0.808163
vn -0.587170 0.045882 0.808163
vn 0.000006 -0.000000 1.000000
vn 0.000006 -0.000000 1.000000
vn 0.000005 0.045882 0.998947
vn 0.000005 0.045881 0.998947
vn 0.587171 0.045882 0.808162
vn 0.587171 0.045882 0.808162
vn 0.950057 0.045883 0.308686
vn 0.950057 0.045883 0.308686
vn 0.950050 0.045885 -0.308706
vn 0.950050 0.045885 -0.308706
vn 0.551999 0.343573 -0.759773
vn 0.551999 0.343573 -0.759773
vn -0.000008 0.343586 -0.939121
vn -0.000008 0.343586 -0.939121
vn -0.551981 0.343577 -0.759784
vn -0.551981 0.343577 -0.759784
vn -0.893164 0.343563 -0.290212
vn -0.893164 0.343563 -0.290212
vn -0.893168 0.343560 0.290202
vn -0.893168 0.343560 0.290202
vn -0.552003 0.343554 0.759779
vn -0.552003 0.343554 0.759779
vn 0.000000 0.343549 0.939135
vn 0.000000 0.343549 0.939135
vn 0.552010 0.343557 0.759772
vn 0.552010 0.343557 0.759772
vn 0.893167 0.343560 0.290207
vn 0.893167 0.343560 0.290207
vn 0.893162 0.343563 -0.290217
vn 0.893162 0.343563 -0.290217
vn 0.587788 0.000000 -0.809015
vn 0.587788 0.000000 -0.809015
vn 0.587788 0.000000 -0.809015
vn 0.587788 0.000000 -0.809015
vn -0.000005 -0.000001 -1.000000
vn -0.000005 -0.000001 -1.000000
vn -0.000005 -0.000001 -1.000000
vn -0.000005 -0.000001 -1.000000
vn -0.587773 -0.000000 -0.809026
vn -0.587772 -0.000000 -0.809026
vn -0.587772 -0.000000 -0.809026
vn -0.587773 -0.000000 -0.809026
vn -0.951056 0.000000 -0.309020
vn -0.951056 0.000000 -0.309020
vn -0.951056 0.000000 -0.309020
vn -0.951056 0.000000 -0.309020
vn -0.951057 0.000000 0.309015
vn -0.951057 0.000000 0.309015
vn -0.951057 0.000000 0.309015
vn -0.951057 0.000000 0.309015
vn -0.587773 0.000000 0.809026
vn -0.587773 0.000000 0.809026
vn -0.587773 0.000000 0.809026
vn -0.587773 0.000000 0.809026
vn -0.000005 0.000000 1.000000
vn -0.000005 0.000000 1.000000
vn -0.000005 0.000000 1.000000
vn -0.000005 0.000000 1.000000
vn 0.587784 0.000000 0.809018
vn 0.587784 0.000000 0.809018
vn 0.587784 0.000000 0.809018
vn 0.587784 0.000000 0.809018
vn 0.951056 0.000000 0.309018
vn 0.951056 0.000000 0.309018
vn 0.951056 0.000000 0.309018
vn 0.951056 0.000000 0.309018
vn 0.951054 0.000000 -0.309026
vn 0.951054 0.000000 -0.309026
vn 0.951054 0.000000 -0.309026
vn 0.951054 0.000000 -0.309026
vn 0.994336 -0.106091 -0.006316
vn 0.994388 -0.105791 0.000000
vn 0.999980 0.000000 -0.006365
vn 1.000000 0.000000 -0.000000
vn 0.615623 0.000000 0.788041
vn 0.615624 -0.000000 0.788040
vn 0.615624 -0.000000 0.788040
vn 0.615623 0.000000 0.788041
vn 0.034845 0.000000 0.999393
vn 0.034845 -0.000000 0.999393
vn 0.034845 -0.000000 0.999393
vn 0.034845 0.000000 0.999393
vn -0.559205 0.000000 0.829030
vn -0.559205 0.000000 0.829029
vn -0.559205 0.000000 0.829029
vn -0.559205 0.000000 0.829030
vn -0.939700 0.000000 0.341999
vn -0.939700 -0.000000 0.341999
vn -0.939700 -0.000000 0.341999
vn -0.939700 0.000000 0.341999
vn -0.961252 0.000000 -0.275670
vn -0.961253 0.000000 -0.275670
vn -0.961252 0.000000 -0.275670
vn -0.961252 0.000000 -0.275670
vn -0.615637 0.000000 -0.788029
vn -0.616230 -0.000651 -0.787566
vn -0.615878 -0.000265 -0.787841
vn -0.615637 0.000000 -0.788029
vn 0.559229 -0.000000 -0.829013
vn 0.559483 -0.000265 -0.828842
vn 0.559853 -0.000651 -0.828592
vn 0.559229 -0.000000 -0.829013
vn 0.939709 0.000000 -0.341976
vn 0.939709 0.000000 -0.341975
vn 0.939709 0.000000 -0.341975
vn 0.939709 0.000000 -0.341976
vn 0.961247 0.000000 0.275689
vn 0.961247 -0.000000 0.275690
vn 0.961247 -0.000000 0.275690
vn 0.961247 0.000000 0.275689
vn -0.000015 -1.000000 -0.000038
vn 0.000000 -1.000000 0.000001
vn -0.000036 -1.000000 -0.000026
vn 0.000012 -1.000000 -0.000040
vn 0.000034 -1.000000 -0.000027
vn 0.000043 -1.000000 -0.000002
vn 0.000036 -1.000000 0.000024
vn 0.000015 -1.000000 0.000042
vn -0.000012 -1.000000 0.000042
vn -0.000034 -1.000000 0.000030
vn -0.000043 -1.000000 0.000003
vn 0.000000 1.000000 0.000009
vn 0.000000 1.000000 0.000002
vn 0.000000 1.000000 0.000009
vn 0.000000 1.000000 0.000000
vn 0.000000 1.000000 -0.000011
vn 0.000000 1.000000 0.000002
vn 0.000000 1.000000 0.000014
vn 0.000000 1.000000 0.000000
vn 0.000000 1.000000 0.000000
vn 0.000000 1.000000 0.000001
vn 0.000000 1.000000 -0.000004
vn 0.000001 -1.000000 0.000000
vn 0.000001 -1.000000 0.000000
vn 0.999918 0.000000 -0.012839
vn 0.999915 -0.002181 -0.012839
vn -0.999915 -0.002242 0.012845
vn -0.999918 0.000000 0.012845
vn 0.615616 -0.000000 0.788046
vn 0.615616 -0.000000 0.788046
vn 0.034861 -0.000003 0.999392
vn 0.034861 -0.000003 0.999392
vn -0.559211 -0.000002 0.829025
vn -0.559211 -0.000002 0.829025
vn -0.939698 -0.000000 0.342005
vn -0.939698 -0.000000 0.342005
vn -0.961253 0.000000 -0.275666
vn -0.961253 0.000000 -0.275666
vn -0.805357 -0.041717 -0.591321
vn -0.795978 -0.050976 -0.603176
vn 0.752005 -0.050975 -0.657183
vn 0.762188 -0.041715 -0.646010
vn 0.939707 0.000000 -0.341980
vn 0.939707 0.000000 -0.341980
vn 0.961248 0.000000 0.275686
vn 0.961248 0.000000 0.275686
vn -0.994416 -0.104759 0.012776
vn 0.615617 0.000003 0.788046
vn 0.615617 0.000003 0.788046
vn 0.034866 -0.000004 0.999392
vn 0.034866 -0.000004 0.999392
vn -0.559216 -0.000003 0.829022
vn -0.559217 -0.000003 0.829022
vn -0.939698 0.000000 0.342005
vn -0.939698 0.000000 0.342005
vn -0.961254 0.000000 -0.275665
vn -0.961254 0.000000 -0.275665
vn -0.844328 0.000000 -0.535827
vn -0.844328 0.000000 -0.535827
vn 0.804931 0.000000 -0.593368
vn 0.804931 0.000000 -0.593368
vn 0.939707 0.000000 -0.341980
vn 0.939707 0.000000 -0.341980
vn 0.961248 0.000001 0.275685
vn 0.961248 0.000001 0.275685
vn -0.999918 0.000000 0.012847
vn 0.614965 0.045886 0.787218
vn 0.614965 0.045886 0.787218
vn 0.034810 0.045887 0.998340
vn 0.034810 0.045887 0.998340
vn -0.558609 0.045886 0.828161
vn -0.558609 0.045886 0.828161
vn -0.938711 0.045885 0.341636
vn -0.938711 0.045887 0.341636
vn -0.960240 0.045884 -0.275380
vn -0.960240 0.045884 -0.275380
vn -0.614991 0.045881 -0.787198
vn -0.614991 0.045881 -0.787198
vn -0.034858 -0.000000 -0.999392
vn -0.034823 0.045881 -0.998340
vn -0.034823 0.045881 -0.998340
vn -0.034858 -0.000000 -0.999392
vn 0.558638 0.045882 -0.828142
vn 0.558638 0.045881 -0.828142
vn 0.938718 0.045883 -0.341620
vn 0.938718 0.045883 -0.341620
vn 0.960236 0.045885 0.275394
vn 0.960236 0.045884 0.275394
vn 0.578147 0.343574 0.740070
vn 0.578147 0.343574 0.740070
vn 0.032726 0.343588 0.938550
vn 0.032726 0.343588 0.938550
vn -0.525153 0.343577 0.778569
vn -0.525153 0.343577 0.778568
vn -0.882506 0.343561 0.321169
vn -0.882506 0.343561 0.321169
vn -0.902742 0.343560 -0.258890
vn -0.902742 0.343560 -0.258890
vn -0.578152 0.343549 -0.740077
vn -0.578152 0.343549 -0.740077
vn -0.032743 0.343545 -0.938565
vn -0.032743 0.343545 -0.938565
vn 0.525184 0.343552 -0.778558
vn 0.525184 0.343552 -0.778559
vn 0.882508 0.343559 -0.321166
vn 0.882508 0.343559 -0.321166
vn 0.902738 0.343562 0.258901
vn 0.902738 0.343562 0.258901
vn 0.615633 0.000000 0.788033
vn 0.615633 0.000000 0.788033
vn 0.615633 0.000000 0.788033
vn 0.615633 0.000000 0.788033
vn 0.034861 -0.000000 0.999392
vn 0.034861 -0.000000 0.999392
vn 0.034861 -0.000000 0.999392
vn 0.034861 -0.000000 0.999392
vn -0.559217 0.000000 0.829021
vn -0.559217 0.000000 0.829021
vn -0.559217 0.000000 0.829021
vn -0.559217 0.000000 0.829021
vn -0.939704 0.000000 0.341989
vn -0.939704 0.000000 0.341989
vn -0.939704 0.000000 0.341989
vn -0.939704 0.000000 0.341989
vn -0.961251 0.000000 -0.275673
vn -0.961251 0.000000 -0.275673
vn -0.961251 0.000000 -0.275673
vn -0.961251 0.000000 -0.275673
vn -0.615619 0.000000 -0.788044
vn -0.615619 0.000000 -0.788044
vn -0.615619 0.000000 -0.788044
vn -0.615619 0.000000 -0.788044
vn -0.034875 0.000000 -0.999392
vn -0.034875 0.000000 -0.999392
vn -0.034875 0.000000 -0.999392
vn -0.034875 0.000000 -0.999392
vn 0.559217 0.000000 -0.829021
vn 0.559217 0.000000 -0.829021
vn 0.559217 0.000000 -0.829021
vn 0.559217 0.000000 -0.829021
vn 0.939706 0.000000 -0.341982
vn 0.939706 0.000000 -0.341982
vn 0.939706 0.000000 -0.341982
vn 0.939706 0.000000 -0.341982
vn 0.961249 0.000000 0.275682
vn 0.961249 0.000000 0.275682
vn 0.961249 0.000000 0.275682
vn 0.961249 0.000000 0.275682
vn 0.994199 -0.106798 -0.012764
vn 0.999918 0.000000 -0.012837
s 1
g pCylinder1
usemtl initialShadingGroup
f 1/1/1 2/2/2 12/240/3 11/232/4
s 2
f 2/2/5 3/5/6 13/261/7 12/240/8
s 3
f 3/264/9 4/7/10 14/238/11 13/239/12
s 4
f 4/7/13 5/9/14 15/237/15 14/238/16
s 5
f 5/9/17 6/11/18 16/235/19 15/237/20
s 6
f 6/11/21 7/13/22 17/154/23 16/235/24
s 7
f 8/15/25 9/16/26 19/233/27 18/234/28
s 8
f 9/16/29 10/19/30 20/231/31 19/233/32
s 9
f 10/19/33 1/1/34 11/232/35 20/231/36
s 10
f 63/21/37 62/22/38 64/23/39
f 65/260/40 63/21/37 64/23/39
f 66/25/41 65/24/40 64/259/39
f 67/26/42 66/25/41 64/259/39
f 68/27/43 67/26/42 64/259/39
f 69/174/44 68/27/43 64/259/39
f 70/29/45 69/28/44 64/23/39
f 71/30/46 70/29/45 64/23/39
f 72/31/47 71/30/46 64/23/39
f 62/22/38 72/31/47 64/23/39
s 11
f 31/32/48 32/33/49 33/34/50
f 32/33/49 34/265/51 33/34/50
f 34/35/51 35/36/52 33/34/50
f 35/36/52 36/37/53 33/34/50
f 36/37/53 37/38/54 33/34/50
f 37/38/54 38/171/55 33/34/50
f 38/171/55 39/172/56 33/34/50
f 39/172/56 40/41/57 33/34/50
f 40/41/57 41/42/58 33/34/50
f 41/42/58 31/32/48 33/34/50
s 12
f 7/184/59 8/166/60 74/183/61 73/44/62
s 13
f 8/181/63 18/161/64 75/164/65 74/242/66
s 11
f 39/40/56 38/228/55 79/230/67 80/47/68
s 14
f 17/157/69 7/165/70 73/186/71 76/244/72
s 1
f 11/4/4 12/3/3 22/49/73 21/50/74
s 2
f 12/3/8 13/267/7 23/266/75 22/49/76
s 3
f 13/6/12 14/8/11 24/52/77 23/51/78
s 4
f 14/8/16 15/10/15 25/53/79 24/52/80
s 5
f 15/10/20 16/12/19 26/54/81 25/53/82
s 6
f 16/12/24 17/236/23 27/153/83 26/54/84
s 7
f 18/18/28 19/17/27 29/56/85 28/57/86
s 8
f 19/17/32 20/20/31 30/58/87 29/56/88
s 9
f 20/20/36 11/4/35 21/50/89 30/58/90
s 14
f 17/14/69 76/159/72 77/59/91 27/55/92
s 1
f 21/50/74 22/49/73 32/33/93 31/32/94
s 2
f 22/49/76 23/266/75 34/265/95 32/33/96
s 3
f 23/51/78 24/52/77 35/36/97 34/35/98
s 4
f 24/52/80 25/53/79 36/37/99 35/36/100
s 5
f 25/53/82 26/54/81 37/38/101 36/37/102
s 6
f 26/54/84 27/153/83 38/171/103 37/38/104
s 7
f 28/57/86 29/56/85 40/41/105 39/172/106
s 8
f 29/56/88 30/58/87 41/42/107 40/41/108
s 9
f 30/58/90 21/50/89 31/32/109 41/42/110
s 14
f 27/55/92 77/59/91 79/46/111 38/39/112
s 1
f 2/2/2 1/1/1 42/60/113 43/61/114
s 2
f 3/5/6 2/2/5 43/61/115 44/62/116
s 3
f 4/7/10 3/264/9 44/262/117 45/63/118
s 4
f 5/9/14 4/7/13 45/63/119 46/64/120
s 5
f 6/11/18 5/9/17 46/64/121 47/65/122
s 6
f 7/13/22 6/11/21 47/65/123 48/66/124
s 15
f 8/15/125 7/173/126 48/176/127 49/67/128
s 7
f 9/16/26 8/15/25 49/67/129 50/68/130
s 8
f 10/19/30 9/16/29 50/68/131 51/69/132
s 9
f 1/1/34 10/19/33 51/69/133 42/60/134
s 1
f 43/61/114 42/60/113 52/211/135 53/219/136
s 2
f 44/62/116 43/61/115 53/219/137 54/218/138
s 3
f 45/63/118 44/262/117 54/263/139 55/217/140
s 4
f 46/64/120 45/63/119 55/217/141 56/216/142
s 5
f 47/65/122 46/64/121 56/216/143 57/215/144
s 6
f 48/66/124 47/65/123 57/215/145 58/214/146
s 15
f 49/67/128 48/176/127 58/175/147 59/213/148
s 7
f 50/68/130 49/67/129 59/213/149 60/212/150
s 8
f 51/69/132 50/68/131 60/212/151 61/210/152
s 9
f 42/60/134 51/69/133 61/210/153 52/211/154
s off
f 53/71/155 52/70/156 62/22/157 63/21/158
f 54/72/159 53/71/160 63/21/161 65/260/162
f 55/73/163 54/258/164 65/24/165 66/25/166
f 56/74/167 55/73/168 66/25/169 67/26/170
f 57/75/171 56/74/172 67/26/173 68/27/174
f 58/76/175 57/75/176 68/27/177 69/174/178
f 59/77/179 58/209/180 69/28/181 70/29/182
f 60/78/183 59/77/184 70/29/185 71/30/186
f 61/79/187 60/78/188 71/30/189 72/31/190
f 52/70/191 61/79/192 72/31/193 62/22/194
s 13
f 78/80/195 75/45/65 18/162/64 28/160/196
f 80/47/197 78/80/195 28/160/196 39/40/198
s 16
f 81/249/199 91/270/200 92/273/201 82/251/202
s 17
f 82/251/203 92/273/204 93/268/205 83/220/206
s 18
f 83/257/207 93/224/208 94/87/209 84/256/210
s 19
f 84/256/211 94/87/212 95/89/213 85/255/214
s 20
f 85/255/215 95/89/216 96/91/217 86/253/218
s 21
f 86/253/219 96/91/220 97/93/221 87/177/222
s 22
f 88/247/223 98/168/224 99/271/225 89/250/226
s 23
f 89/250/227 99/271/228 100/269/229 90/248/230
s 24
f 90/248/231 100/269/232 91/270/233 81/249/234
s 25
f 143/101/235 144/102/236 142/103/237
f 145/104/238 144/102/236 143/101/235
f 146/105/239 144/102/236 145/104/238
f 147/106/240 144/102/236 146/105/239
f 148/107/241 144/102/236 147/106/240
f 149/108/242 144/102/236 148/107/241
f 150/109/243 144/102/236 149/179/242
f 151/110/244 144/102/236 150/109/243
f 152/111/245 144/102/236 151/110/244
f 142/103/237 144/102/236 152/111/245
s 11
f 111/112/246 113/113/247 112/114/248
f 112/114/248 113/113/247 114/223/249
f 114/115/249 113/227/247 115/116/250
f 115/116/250 113/227/247 116/117/251
f 116/117/251 113/227/247 117/118/252
f 117/118/252 113/113/247 118/225/253
f 118/225/253 113/113/247 119/120/254
f 119/120/254 113/113/247 120/121/255
f 120/121/255 113/113/247 121/122/256
f 121/122/256 113/113/247 111/112/246
s 12
f 87/169/257 73/44/62 74/183/61 88/182/258
s 13
f 88/170/259 74/43/66 75/241/65 98/163/260
s 11
f 119/226/254 80/47/68 79/230/67 118/229/253
s 14
f 97/156/261 76/48/72 73/243/71 87/185/262
s 16
f 91/82/200 101/123/263 102/124/264 92/83/201
s 17
f 92/83/204 102/124/265 103/125/266 93/85/205
s 18
f 93/224/208 103/222/267 104/126/268 94/87/209
s 19
f 94/87/212 104/126/269 105/127/270 95/89/213
s 20
f 95/89/216 105/127/271 106/128/272 96/91/217
s 21
f 96/91/220 106/128/273 107/129/274 97/93/221
s 22
f 98/272/224 108/167/275 109/131/276 99/97/225
s 23
f 99/97/228 109/131/277 110/132/278 100/99/229
s 24
f 100/99/232 110/132/279 101/123/280 91/82/233
s 14
f 97/158/261 107/155/281 77/59/91 76/159/72
s 16
f 101/123/263 111/112/282 112/114/283 102/124/264
s 17
f 102/124/265 112/114/284 114/223/285 103/125/266
s 18
f 103/222/267 114/115/286 115/116/287 104/126/268
s 19
f 104/126/269 115/116/288 116/117/289 105/127/270
s 20
f 105/127/271 116/117/290 117/118/291 106/128/272
s 21
f 106/128/273 117/118/292 118/225/293 107/129/274
s 22
f 108/167/275 119/120/294 120/121/295 109/131/276
s 23
f 109/131/277 120/121/296 121/122/297 110/132/278
s 24
f 110/132/279 121/122/298 111/112/299 101/123/280
s 14
f 107/155/281 118/119/300 79/46/111 77/59/91
s 16
f 82/84/202 123/197/301 122/188/302 81/81/199
s 17
f 83/252/206 124/221/303 123/197/304 82/84/203
s 18
f 84/88/210 125/195/305 124/196/306 83/86/207
s 19
f 85/90/214 126/194/307 125/195/308 84/88/211
s 20
f 86/92/218 127/193/309 126/194/310 85/90/215
s 21
f 87/254/222 128/180/311 127/193/312 86/92/219
s 27
f 88/95/313 129/190/314 128/191/315 87/94/316
s 22
f 89/98/226 130/189/317 129/190/318 88/95/223
s 23
f 90/100/230 131/187/319 130/189/320 89/98/227
s 24
f 81/81/234 122/188/321 131/187/322 90/100/231
s 16
f 123/245/301 133/246/323 132/199/324 122/134/302
s 17
f 124/135/303 134/207/325 133/208/326 123/133/304
s 18
f 125/136/305 135/206/327 134/207/328 124/135/306
s 19
f 126/137/307 136/205/329 135/206/330 125/136/308
s 20
f 127/138/309 137/204/331 136/205/332 126/137/310
s 21
f 128/192/311 138/178/333 137/204/334 127/138/312
s 27
f 129/140/314 139/201/335 138/202/336 128/139/315
s 22
f 130/141/317 140/200/337 139/201/338 129/140/318
s 23
f 131/142/319 141/198/339 140/200/340 130/141/320
s 24
f 122/134/321 132/199/341 141/198/342 131/142/322
s off
f 133/143/343 143/101/344 142/103/345 132/144/346
f 134/145/347 145/104/348 143/101/349 133/143/350
f 135/146/351 146/105/352 145/104/353 134/145/354
f 136/147/355 147/106/356 146/105/357 135/146/358
f 137/148/359 148/107/360 147/106/361 136/147/362
f 138/203/363 149/108/364 148/107/365 137/148/366
f 139/150/367 150/109/368 149/179/369 138/149/370
f 140/151/371 151/110/372 150/109/373 139/150/374
f 141/152/375 152/111/376 151/110/377 140/151/378
f 132/144/379 142/103/380 152/111/381 141/152/382
s 13
f 78/80/195 108/130/383 98/96/260 75/45/65
f 80/47/197 119/226/384 108/130/383 78/80/195
